1 10 20
100 200 125
201 210 89
900 1000 174
1 1000000 525
50 500 144
70 700 145
12 1200 182
8000 8 262
890123 123129 525
3452 3452 44
35102 58902 340
349032 34902 443
102034 235234 443
999999 234982 525
1000000 700329 525
241902 3242 443
2325 12315 268
234905 23421 443
90123 3842 351
1235 424859 449
234902 342 443
3094 590323 470
429405 90 449
123905 3490 354
239045 123 443
29015 123140 354
321 319456 443
123905 902856 525
1239 234586 443
349 234256 443
23490 324902 443
34905 234251 443
129305 239643 443
234 123149 354
123019 123905 331
23492 34 279
1231 225667 386
901235 234092 525
129 123141 354
252 123156 354
12 12358 268
12318 23428 279
123958 348 354
91 123 119
10 185938 383
429025 123125 449
920 34856 311
29486 494036 449
294 396943 443
234926 2493 443
293 496945 449
2349 295834 443
394 394582 443
304 383 144
394 20 144
3 3 8
3492 59342 340
234095 24203 443
3942 5 238
349203 493 443
49025 920 324
1239 392 182
3910 39052 324
1293 23946 282
29346 234856 443
268 8540 262
90284 30261 351
93 293025 443
2318 23482 279
1293 2385 183
1995 3042 217
23458 8981 279
1997 123834 354
930942 8141 525
409850 8943 443
525 3498 217
34902 5234 311
123957 39892 354
34090 901293 525
382248 3944 443
2384 30421 308
8593 3042 262
120391 21312 354
48324 5834 324
34285 24321 311
34825 34893 174
9834 2024 262
4392 4 238
24 4 21
428 304290 443
390423 3482 443
1000000 32 525
34825 342512 443
34242 4325 311
34 123539 354
382 38245 324
934242 348 525
34285 1230 311
38231 485 324
324 5704 238
4389 428902 449
34892 4356 311
48930 428902 449
4834 343252 443
242525 4321 443
43928 421 324
91295 52597 351
